…
con_exp_df
```

    ## # A tibble: 160 × 5
    ##    sample arm   id    week  observation
    ##    <chr>  <chr> <chr> <chr>       <dbl>
    ##  1 con_01 con   01    1            0.2 
    ##  2 con_01 con   01    2           -1.31
    ##  3 con_01 con   01    3            0.66
    ##  4 con_01 con   01    4            1.96
    ##  5 con_01 con   01    5            0.23
    ##  6 con_01 con   01    6            1.09
    ##  7 con_01 con   01    7            0.05
    ##  8 con_01 con   01    8            1.94
    ##  9 con_02 con   02    1            1.13
    ## 10 con_02 con   02    2           -0.88
    ## # … with 150 more rows
…
